{
	"CALENDAR": {
		"BOOKABLE_ITEM": "Bookable Item",
		"DAY": "Day",
		"DESCRIPTION": "Description",
		"LOCATION": "Location",
		"MONTH": "Month",
		"NAME": "Name",
		"NEXT": "Next",
		"PREVIOUS": "Previous",
		"TODAY": "Today",
		"WEEK": "Week"
	},
	"ERROR": {
		"AUTHENTICATION_FAILED": "Authentication failed",
		"BAD_LOGIN_OR_PWD": "Bad login or password",
		"BOOKABLE_ITEM_ID_PARAM_NOT_FOUND": "This bookable parameter identifier isn't linked with one of your bookable item!",
		"COUPON_CODE_INVALID": "Coupon Code Invalid",
		"DIFFERENT_CURRENCIES": "You can not book multiple events that have different payment currencies.",
		"EVENT_ALREADY_SELECTED": "This event is already selected.",
		"MAXIMUM_QUOTA": "You can't book more than {{value}} slots",
		"MINIMUM_QUOTA": "You need to book a minimum of {{value}} slots",
		"NO_ATHLETE": "There is no athlete to display, please register at least one.",
		"NO_BOOKABLE_ITEM": "Please create at least 1 bookable item in your Sagenda's account!",
		"NO_TOKEN": "Please copy your authentication code (token) from your Sagenda's account!",
		"NUMBER_OF_MEMBERS_EXCEEDS_MAXIMUM": "There are not enough openings for the number of members you would like to book.",
		"PAYMENT_BANCONTACT_CURRENCY": "Only € is accepted for Bancontact payment",
		"PAYMENT_CONFIRMATION_FAIL": "Payment wasn't processed correctly for your reservation(s).",
		"PAYMENT_METHOD_NOT_CONFIGURED": "The payment method isn't configured, please configure from your module center!",
		"PAYMENT_MODULE_NOT_PAID": "The payment module isn't activated anymore, please subscribe from your module center!"
	},
	"EVENT": {
		"ALL_DAY": "All Day",
		"BLOCK": "Block",
		"BLOCKED": "Blocked",
		"DATE": "Date",
		"EVENT_TITLE": "Event's title",
		"STATE_BOOKED": "Booked",
		"STATE_FREE": "Open reservation(s)",
		"STATE_FREE_OPEN": "Open",
		"STATE_PARTIALLY_BOOKED": "Partially booked",
		"UNBLOCK": "Unblock"
	},
	"MESSAGE": {
		"ARE_YOU_SURE_ACTION_CANT_BE_UNDONE": "Are you sure? This action can't be undone!",
		"ARE_YOU_SURE_BLOCK_EVENT": "Are you sure you want to block this event? Reservation won't be possible until you unblock the event.",
		"ARE_YOU_SURE_DELETE_SAGENDA_ACCOUNT": "Are you sure you want to delete your Sagenda account? This isn't only the mobile app but also your sagenda.net account.",
		"COUPON_CODE_VALID": "Coupon Code Valid",
		"DISABLE_MULTIPLE_SELECTION": "Disable multiple selection",
		"DONT_HAVE_A_SAGENDA_ACCOUNT": "Don't have an account?",
		"ENABLE_MULTIPLE_SELECTION": "Enable multiple selection",
		"NO_EVENT": "No event found for the given period!",
		"PAYMENT_CONFIRMATION_SUCCESS": "Payment processed correctly for your reservation(s).",
		"PAYMENT_METHODS_STRIPE": "All other payment method (Stripe, Credit Card, Bancontact...)",
		"PLEASE_CREATE_ONE_HERE": "Please create one here!",
		"PLEASE_ENTER_A_VALID_EMAIL_ADDRESS": "Please enter a valid email address!",
		"PLEASE_ENTER_A_VALID_PHONE_NB_WITH_INTERNATIONAL_COUNTRY_CODE": "Please enter a valid phone number with international country code in order to be able to get SMS notifications.",
		"PLEASE_INDICATE_READ_AGREE_TERMS_AND_CONDITIONS": "Please indicate that you have read and agree to the Terms and Conditions",
		"PLEASE_LOGIN": "Please login",
		"PLEASE_SELECT": "Please select...",
		"THIS_ACTION_CANT_BE_UNDONE": "This action can't be undone!",
		"VALUE_IS_REQUIRED": "Value is required!",
		"WRONG_CREDENTIALS": "Wrong login or password. Please create an account if you don't have one.",
		"YOU_DONT_HAVE_ANY_RESERVATION": "You don't have any reservation for that event.",
		"YOU_HAVE_SUCCESSFULLY_BOOKED": "You have successfully booked!",
		"YOU_WILL_GET_NOTIFICATION": "You will soon get a notification by email and optionally by SMS."
	},
	"MESSAGE_TYPE": {
		"CONFIRMATION": "Confirmation",
		"ERROR": "Error",
		"INFO": "Info",
		"WARNING": "Warning"
	},
	"MULTIPLE": {
		"CLEAR_SELECTION": "Clear selection",
		"NO_SELECTED_EVENTS": "No event selected. Please click on each event individually or use range selection by selecting several days.",
		"SELECTED_EVENTS": "Selected event(s)"
	},
	"SPORT": {
		"ACTIVE_KILOCALORIES": "Active kilocalories",
		"ACTIVITY": "Activity",
		"ACTIVITY_TYPE": "Activity Type",
		"ATHLETE": "Athlete",
		"ATHLETES": "Athletes",
		"AVERAGE_PACE_IN_MINUTES_PER_KILOMETER": "Average pace in minutes per kilometer",
		"AVERAGE_SPEED_IN_METERS_PER_SECOND": "Average speed in meters per second",
		"DEVICE_NAME": "Device name",
		"DISTANCE_AND_SPEED": "Distance and Speed",
		"DISTANCE_IN_METERS": "Distance in meters",
		"DURATION": "Duration",
		"GARMIN": {
			"APNEA_DIVING": "Apnea Diving",
			"APNEA_HUNTING": "Apnea Hunting",
			"ASSISTANCE": "Assistance",
			"ATV": "ATV",
			"AUTO_RACING": "Auto Racing",
			"BACKCOUNTRY_SKIING_SNOWBOARDING_WS": "Backcountry Skiing Snowboarding",
			"BIKETORUNTRANSITION": "Bike to Run Transition",
			"BMX": "BMX",
			"BOATING": "Boating",
			"BOULDERING": "Bouldering",
			"BREATHWORK": "breathwork",
			"CASUAL_WALKING": "Casual Walking",
			"CCR_DIVE": "CCR Dive",
			"CROSS_COUNTRY_SKIING_WS": "Cross Country Classic Skiing",
			"CYCLING": "Cycling",
			"CYCLOCROSS": "Cyclocross",
			"DIVING": "Diving",
			"DOWNHILL_BIKING": "Downhill Biking",
			"DRIVING_GENERAL": "Driving",
			"ELLIPTICAL": "Elliptical",
			"E_SPORT": "Esports",
			"FISHING": "Fishing",
			"FITNESS_EQUIPMENT": "Fitness Equipment",
			"FLOOR CLIMBING": "Floor Climbing",
			"FLYING": "Flying",
			"GAUGE_DIVEING": "Gauge Diving",
			"GOLF": "Golf",
			"GRAVEL_CYCLING": "Gravel Cycling",
			"HANG_GLIDING": "Hang Gliding",
			"HIKING": "Hiking",
			"HORSEBACK_RIDING": "Horseback Riging",
			"HUNTING": "Hunting",
			"HUNTING_FISHING": "Hunting Fishing",
			"INDOOR_CARDIO": "Indoor Cardio",
			"INDOOR_CLIMBING": "Indoor Climbing",
			"INDOOR_CYCLING": "Indoor Cycling",
			"INDOOR_ROWING": "Indoor Rowing",
			"INDOOR_RUNNING": "Indoor Running",
			"INLINE_SKATING": "Inline Skating",
			"LAP_SWIMMING": "Pool Swimming",
			"MOTOCROSS": "Motocross",
			"MOTORCYCLING": "Motorcycling",
			"MOUNTAINEERING": "Mountaineerin",
			"MOUNTAIN_BIKING": "Mountain Biking",
			"MULTI_GAS_DIVING": "Multi Gas Diving",
			"OBSTACLE_RUN": "Obstacle Running",
			"OFFSHORE_GRINDING": "Offshore Grinding",
			"ONSHORE_GRINDING": "Onshore Grinding",
			"OPEN_WATER_SWIMMING": "Open Water Swimming",
			"OTHER": "Other",
			"PADDLING": "Paddling",
			"PILATES": "Pilates",
			"RC_DRONE": "RC Drone",
			"RECUMBENT_CYCLING": "Recumbent Cycling",
			"RESORT_SKIING_SNOWBOARDING_WS": "Resort Skiing Snowboarding",
			"ROAD_BIKING": "Road Cycling",
			"ROCK_CLIMBING": "Rock Climbing",
			"ROWING": "Rowing",
			"RUNNING": "Running",
			"RUNTOBIKETRANSITION": "Run to Bike Transition",
			"SAILING": "Sailing",
			"SINGLE_GAS_DIVING": "Single Gas Diving",
			"SKATE_SKIING_WS": "Cross Country Skate Skiing",
			"SKATING_WS": "Skating",
			"SKY_DIVING": "Sky Diving",
			"SNOWMOBILING_WS": "Snowmobiling",
			"SNOW_SHOE_WS": "Snowshoeing",
			"SPEED_WALKING": "Speed Walking",
			"STAIR_CLIMBING": "Stair Stepper",
			"STAND_UP_PADDLEBOARDING": "Stand Up Paddleboarding",
			"STOPWATCH": "Stop Watch",
			"STREET_RUNNING": "Street Running",
			"STRENGTH_TRAINING": "Strength Training",
			"SURFING": "Surfing",
			"SWIMMING": "Swimming",
			"SWIMTOBIKETRANSITION": "Swim to Bike Transition",
			"TENNIS": "Tennis",
			"TRACK_CYCLING": "Track Cycling",
			"TRACK_RUNNING": "Trac Running",
			"TRAIL_RUNNING": "Trail Running",
			"TRANSITION": "Transition",
			"TREADMILL_RUNNING": "Treadmill Running",
			"ULTRA_RUNN": "Ultra Running",
			"VIRTUAL_RIDE": "Virtual Cycling",
			"VIRTUAL_RUN": "Virtual Running",
			"WAKEBOARDING": "Wakeboarding",
			"WALKING": "Walking",
			"WHITEWATER_RAFTING_KAYAKING": "Whitewater Rafting Kayaking",
			"WIND_KITE_SURFING": "Wind Kite Surfing",
			"WINGSUIT_FLYING": "Wingsuit Flying",
			"WINTER_SPORTS": "Winter Sports",
			"YOGA": "Yoga"
		},
		"OTHERS": "Others",
		"PHYSIOLOGICAL_DATA": "Physiological data",
		"TIMING": "Timing"
	},
	"STANDARD": {
		"AGENDA": "Agenda",
		"CANCEL": "Cancel",
		"CANCEL_ALL_BOOKINGS_FOR_THIS_EVENT": "Cancel all reservations for this event",
		"CANCEL_BOOKING": "Cancel this reservation",
		"DANGER_ZONE": "Danger Zone",
		"DATE_RANGE": "Date range",
		"DELETE": "Delete",
		"DELETE_MY_ACCOUNT": "Delete my account",
		"DETAIL": "Detail",
		"EMAIL_ADDRESS": "Email Address",
		"END_DATE": "End date",
		"EVENT": "Event",
		"LINK": "Link",
		"LOGGING_IN": "Logging in",
		"LOGIN": "Login",
		"LOGOUT": "Logout",
		"MENU": "Menu",
		"NUMBER_OF_SLOTS": "Number of slot(s)",
		"OK": "OK",
		"PWD": "Password",
		"RESERVATION": "Reservation",
		"RESERVATIONS": "Reservations",
		"RESERVATION_STATUS": "Reservation status",
		"SETTINGS": "Settings",
		"START_DATE": "Start date",
		"STATISTICS": "Statistics"
	},
	"SUBSCRIPTION": {
		"ADD_MEMBER": "Add Participant",
		"AMOUNT": "Amount",
		"BACK": "Back",
		"BOOK": "Book",
		"BOOKINGS_AND_FIXED_FEES": "Bookings + Fixed fees",
		"BOOKINGS_ONLY": "Bookings only",
		"BOOK_MULTIPLE_PEOPLE": "Book multiple people",
		"BY_ENTERING_NB_OF_PEOPLE": "By entering number of people",
		"BY_GIVING_ALL_NAMES": "By giving all names",
		"DESCRIPTION": "Description",
		"DISCOUNT_AMOUNT": "Discount Amount",
		"DR": "Dr.",
		"EMAIL": "Email address",
		"EVENT_SUB_TOTAL": "Event Sub Total",
		"FEES_FIELD_AMOUNT": "Amount",
		"FEES_FIELD_CALC_PERCENTAGE_ON": "Calculate Percentage on",
		"FEES_FIELD_GRAND_TOTAL": "Grand Total",
		"FEES_FIELD_NAME": "Name",
		"FEES_FIELD_PERCENTAGE": "Percentage",
		"FEES_FIELD_SUB_TOTAL": "Sub Total",
		"FIRST_NAME": "First Name",
		"FIXED_FEES": "Fixed",
		"FROM": "From",
		"LAST_NAME": "Last Name",
		"MISS": "Miss",
		"MR": "Mr.",
		"MRS": "Mrs.",
		"NOTE": "Note",
		"NUMBER_OF_PEOPLE": "Number of people to book",
		"PAYMENT_MESSAGE": "You will be redirected to the paypal website to complete your payment and booking",
		"PAYMENT_MESSAGE_MANY_GW": "You will be redirected to the payment gateway website to complete your payment and booking.",
		"PERCENTAGE_FEES": "Percentage",
		"PHONE": "Phone",
		"REMOVE_MEMBER": "Remove Participant",
		"TAXES_AND_FEES": "Taxes and Fees",
		"TITLE": "Title",
		"TO": "To",
		"VALIDATE_COUPON": "Validate Coupon"
	},
	"TIMEZONE": {
		"TIMEZONE_IS_ADAPTED": "Time is adapted to {{value}} timezone",
		"TIMEZONE_OF_ORGANISER_IS": "Timezone of the organiser is",
		"YOUR_TIMEZONE": "Your timezone"
	}
}
