{
	"CALENDAR": {
		"BOOKABLE_ITEM": "可预订的项目",
		"DAY": "天",
		"DESCRIPTION": "描述",
		"LOCATION": "地点",
		"MONTH": "月",
		"NAME": "名称",
		"NEXT": "下一个",
		"PREVIOUS": "以前",
		"TODAY": "今天",
		"WEEK": "周"
	},
	"ERROR": {
		"AUTHENTICATION_FAILED": "验证失败",
		"BAD_LOGIN_OR_PWD": "登录名或密码错误",
		"BOOKABLE_ITEM_ID_PARAM_NOT_FOUND": "此可预订参数标识符未与您的可预订项之一关联！",
		"COUPON_CODE_INVALID": "优惠券代码无效",
		"DIFFERENT_CURRENCIES": "您无法预订具有不同付款币种的多个事件。",
		"EVENT_ALREADY_SELECTED": "此事件已被选择。",
		"MAXIMUM_QUOTA": "您不能预订超过 {{value}} 个广告位",
		"MINIMUM_QUOTA": "您需要预订至少 {{value}} 个广告位",
		"NO_ATHLETE": "没有可展示的运动员，请至少注册一名。",
		"NO_BOOKABLE_ITEM": "请在您的Sagenda帐户中创建至少1个可预订商品！",
		"NO_TOKEN": "请从您的Sagenda帐户中复制您的身份验证码（令牌）！",
		"NUMBER_OF_MEMBERS_EXCEEDS_MAXIMUM": "您想要预订的会员数量不足。",
		"PAYMENT_BANCONTACT_CURRENCY": "Bancontact 付款仅接受欧元",
		"PAYMENT_CONFIRMATION_FAIL": "您的预订未正确处理付款。",
		"PAYMENT_METHOD_NOT_CONFIGURED": "付款方式未配置，请在您的模块中心配置！",
		"PAYMENT_MODULE_NOT_PAID": "付款模块不再激活，请从您的模块中心订阅！"
	},
	"EVENT": {
		"ALL_DAY": "一整天",
		"BLOCK": "块",
		"BLOCKED": "受阻",
		"DATE": "日期",
		"EVENT_TITLE": "活动标题",
		"STATE_BOOKED": "预订",
		"STATE_FREE": "公开预订",
		"STATE_FREE_OPEN": "打开",
		"STATE_PARTIALLY_BOOKED": "部分预定",
		"UNBLOCK": "解除封锁"
	},
	"MESSAGE": {
		"ARE_YOU_SURE_ACTION_CANT_BE_UNDONE": "你确定吗？此操作无法撤消！",
		"ARE_YOU_SURE_BLOCK_EVENT": "您确定要阻止此事件吗？除非您取消阻止活动，否则将无法预订。",
		"ARE_YOU_SURE_DELETE_SAGENDA_ACCOUNT": "您确定要删除您的 Sagenda 帐户吗？这不仅是移动应用程序，也是您的 sagenda.net 帐户。",
		"COUPON_CODE_VALID": "优惠券代码有效",
		"DISABLE_MULTIPLE_SELECTION": "禁用多项选择",
		"DONT_HAVE_A_SAGENDA_ACCOUNT": "没有帐户？",
		"ENABLE_MULTIPLE_SELECTION": "启用多项选择",
		"NO_EVENT": "在给定时期内未找到任何活动！",
		"PAYMENT_CONFIRMATION_SUCCESS": "为您的预订正确处理付款。",
		"PAYMENT_METHODS_STRIPE": "所有其他付款方式（条纹、信用卡、Bancontact...）",
		"PLEASE_CREATE_ONE_HERE": "请在这里创建一个！",
		"PLEASE_ENTER_A_VALID_EMAIL_ADDRESS": "请输入有效的电子邮件地址！",
		"PLEASE_ENTER_A_VALID_PHONE_NB_WITH_INTERNATIONAL_COUNTRY_CODE": "请输入带有国际国家代码的有效电话号码，以便能够收到SMS通知。",
		"PLEASE_INDICATE_READ_AGREE_TERMS_AND_CONDITIONS": "请表明您已阅读并同意条款和条件",
		"PLEASE_LOGIN": "请登录",
		"PLEASE_SELECT": "请选择...",
		"THIS_ACTION_CANT_BE_UNDONE": "此操作无法撤消！",
		"VALUE_IS_REQUIRED": "价值是必需的！",
		"WRONG_CREDENTIALS": "登录名或密码错误。如果您没有帐户，请创建一个帐户。",
		"YOU_DONT_HAVE_ANY_RESERVATION": "您对该活动没有任何保留。",
		"YOU_HAVE_SUCCESSFULLY_BOOKED": "你已经成功预订了！",
		"YOU_WILL_GET_NOTIFICATION": "您很快就会通过电子邮件和短信获得通知。"
	},
	"MESSAGE_TYPE": {
		"CONFIRMATION": "确认",
		"ERROR": "错误",
		"INFO": "信息",
		"WARNING": "警告"
	},
	"MULTIPLE": {
		"CLEAR_SELECTION": "清空选项",
		"NO_SELECTED_EVENTS": "未选择任何活动。请单独点击每个活动或选择几天选择范围。",
		"SELECTED_EVENTS": "精选活动"
	},
	"SPORT": {
		"ACTIVE_KILOCALORIES": "活跃千卡",
		"ACTIVITY": "活动",
		"ACTIVITY_TYPE": "活动类型",
		"ATHLETE": "运动员",
		"ATHLETES": "运动员",
		"AVERAGE_PACE_IN_MINUTES_PER_KILOMETER": "每公里平均配速分钟数",
		"AVERAGE_SPEED_IN_METERS_PER_SECOND": "平均速度（米/秒）",
		"DEVICE_NAME": "设备名称",
		"DISTANCE_AND_SPEED": "距离和速度",
		"DISTANCE_IN_METERS": "以米为单位的距离",
		"DURATION": "持续时间",
		"GARMIN": {
			"APNEA_DIVING": "呼吸暂停潜水",
			"APNEA_HUNTING": "呼吸暂停狩猎",
			"ASSISTANCE": "帮助",
			"ATV": "一台电视",
			"AUTO_RACING": "赛车",
			"BACKCOUNTRY_SKIING_SNOWBOARDING_WS": "野外滑雪 单板滑雪",
			"BIKETORUNTRANSITION": "骑自行车跑步过渡",
			"BMX": "小轮车",
			"BOATING": "划船",
			"BOULDERING": "抱石",
			"BREATHWORK": "呼吸",
			"CASUAL_WALKING": "休闲步行",
			"CCR_DIVE": "CCR潜水",
			"CROSS_COUNTRY_SKIING_WS": "越野经典滑雪",
			"CYCLING": "循环",
			"CYCLOCROSS": "自行车越野赛",
			"DIVING": "潜水",
			"DOWNHILL_BIKING": "速降自行车",
			"DRIVING_GENERAL": "驾驶",
			"ELLIPTICAL": "椭圆机",
			"E_SPORT": "电竞",
			"FISHING": "钓鱼",
			"FITNESS_EQUIPMENT": "健身器材",
			"FLOOR CLIMBING": "爬楼",
			"FLYING": "飞行",
			"GAUGE_DIVEING": "仪表潜水",
			"GOLF": "高尔夫球",
			"GRAVEL_CYCLING": "碎石自行车",
			"HANG_GLIDING": "滑翔翼",
			"HIKING": "健行",
			"HORSEBACK_RIDING": "骑马索具",
			"HUNTING": "狩猎",
			"HUNTING_FISHING": "狩猎钓鱼",
			"INDOOR_CARDIO": "室内有氧运动",
			"INDOOR_CLIMBING": "室内攀岩",
			"INDOOR_CYCLING": "室内自行车",
			"INDOOR_ROWING": "室内赛艇",
			"INDOOR_RUNNING": "室内跑步",
			"INLINE_SKATING": "轮滑",
			"LAP_SWIMMING": "泳池游泳",
			"MOTOCROSS": "摩托车越野赛",
			"MOTORCYCLING": "摩托车",
			"MOUNTAINEERING": "登山者",
			"MOUNTAIN_BIKING": "山地骑行",
			"MULTI_GAS_DIVING": "多气体潜水",
			"OBSTACLE_RUN": "障碍跑",
			"OFFSHORE_GRINDING": "海上磨矿",
			"ONSHORE_GRINDING": "陆上磨矿",
			"OPEN_WATER_SWIMMING": "开放水域游泳",
			"OTHER": "其他",
			"PADDLING": "划桨",
			"PILATES": "普拉提",
			"RC_DRONE": "遥控无人机",
			"RECUMBENT_CYCLING": "卧式自行车",
			"RESORT_SKIING_SNOWBOARDING_WS": "度假村滑雪单板滑雪",
			"ROAD_BIKING": "公路自行车",
			"ROCK_CLIMBING": "攀岩",
			"ROWING": "划船",
			"RUNNING": "运行",
			"RUNTOBIKETRANSITION": "跑步到自行车的过渡",
			"SAILING": "航海",
			"SINGLE_GAS_DIVING": "单气潜水",
			"SKATE_SKIING_WS": "越野滑冰",
			"SKATING_WS": "溜冰",
			"SKY_DIVING": "跳伞",
			"SNOWMOBILING_WS": "摩托雪橇",
			"SNOW_SHOE_WS": "雪鞋行走",
			"SPEED_WALKING": "速度步行",
			"STAIR_CLIMBING": "楼梯踏步机",
			"STAND_UP_PADDLEBOARDING": "站立式单桨冲浪",
			"STOPWATCH": "秒表",
			"STREET_RUNNING": "街跑",
			"STRENGTH_TRAINING": "力量训练",
			"SURFING": "冲浪",
			"SWIMMING": "游泳的",
			"SWIMTOBIKETRANSITION": "游泳到自行车的过渡",
			"TENNIS": "网球",
			"TRACK_CYCLING": "田径自行车",
			"TRACK_RUNNING": "跟踪运行",
			"TRAIL_RUNNING": "越野跑",
			"TRANSITION": "过渡",
			"TREADMILL_RUNNING": "跑步机跑步",
			"ULTRA_RUNN": "超跑",
			"VIRTUAL_RIDE": "虚拟骑行",
			"VIRTUAL_RUN": "虚拟跑步",
			"WAKEBOARDING": "滑水",
			"WALKING": "步行",
			"WHITEWATER_RAFTING_KAYAKING": "白水漂流皮划艇",
			"WIND_KITE_SURFING": "风筝冲浪",
			"WINGSUIT_FLYING": "翼装飞行",
			"WINTER_SPORTS": "冬季运动",
			"YOGA": "瑜珈"
		},
		"OTHERS": "其他",
		"PHYSIOLOGICAL_DATA": "生理数据",
		"TIMING": "定时"
	},
	"STANDARD": {
		"AGENDA": "议程",
		"CANCEL": "取消",
		"CANCEL_ALL_BOOKINGS_FOR_THIS_EVENT": "取消此活动的所有预订",
		"CANCEL_BOOKING": "取消此预订",
		"DANGER_ZONE": "危险区",
		"DATE_RANGE": "日期范围",
		"DELETE": "删除",
		"DELETE_MY_ACCOUNT": "删除我的账户",
		"DETAIL": "详情",
		"EMAIL_ADDRESS": "电子邮件地址",
		"END_DATE": "结束日期",
		"EVENT": "事件",
		"LINK": "链接",
		"LOGGING_IN": "在登录",
		"LOGIN": "登录",
		"LOGOUT": "登出",
		"MENU": "菜单",
		"NUMBER_OF_SLOTS": "插槽数",
		"OK": "好",
		"PWD": "密码",
		"RESERVATION": "保留",
		"RESERVATIONS": "订座",
		"RESERVATION_STATUS": "预约状态",
		"SETTINGS": "设置",
		"START_DATE": "开始日期",
		"STATISTICS": "统计"
	},
	"SUBSCRIPTION": {
		"ADD_MEMBER": "添加参与者",
		"AMOUNT": "量",
		"BACK": "背部",
		"BOOK": "书",
		"BOOKINGS_AND_FIXED_FEES": "预订 + 固定费用",
		"BOOKINGS_ONLY": "仅限预订",
		"BOOK_MULTIPLE_PEOPLE": "预订多人",
		"BY_ENTERING_NB_OF_PEOPLE": "通过输入人数",
		"BY_GIVING_ALL_NAMES": "通过给出所有的名字",
		"DESCRIPTION": "描述",
		"DISCOUNT_AMOUNT": "优惠金额",
		"DR": "博士",
		"EMAIL": "电子邮件地址",
		"EVENT_SUB_TOTAL": "事件子总计",
		"FEES_FIELD_AMOUNT": "量",
		"FEES_FIELD_CALC_PERCENTAGE_ON": "计算百分比",
		"FEES_FIELD_GRAND_TOTAL": "累计",
		"FEES_FIELD_NAME": "名称",
		"FEES_FIELD_PERCENTAGE": "百分比",
		"FEES_FIELD_SUB_TOTAL": "小计",
		"FIRST_NAME": "名字",
		"FIXED_FEES": "固定",
		"FROM": "从",
		"LAST_NAME": "姓",
		"MISS": "小姐",
		"MR": "先生。",
		"MRS": "太太。",
		"NOTE": "注意",
		"NUMBER_OF_PEOPLE": "预订人数",
		"PAYMENT_MESSAGE": "您将被重定向到paypal网站以完成付款和预订",
		"PAYMENT_MESSAGE_MANY_GW": "您将被重定向到支付网关网站以完成支付和预订。",
		"PERCENTAGE_FEES": "百分比",
		"PHONE": "电话",
		"REMOVE_MEMBER": "删除参与者",
		"TAXES_AND_FEES": "税费",
		"TITLE": "标题",
		"TO": "至",
		"VALIDATE_COUPON": "验证优惠券"
	},
	"TIMEZONE": {
		"TIMEZONE_IS_ADAPTED": "时间适应 {{value}} 时区",
		"TIMEZONE_OF_ORGANISER_IS": "主办方所在时区为",
		"YOUR_TIMEZONE": "您的时区"
	}
}
